<?xml version='1.0' encoding='iso-8859-1'?>
<svg version="1.1" xmlns="http://www.w3.org/2000/svg" viewBox="0 0 230 230" xmlns:xlink="http://www.w3.org/1999/xlink" enable-background="new 0 0 230 230">
  <polygon points="230,99 136,99 136,57 183,57 183,25 47,25 47,57 94,57 94,99 0,99 0,132 94,132 94,205 136,205 136,132 230,132 "/>
</svg>
